[
    {
        "class": "JI7L63IO",
        "responses": "asasa",
        "sentence": "assssa"
    },
    {
        "class": "RQGUOSP6",
        "responses": "Here it is",
        "sentence": "Where is puma"
    },
    {
        "class": "11VZEE02",
        "responses": "You can go for a lunch",
        "sentence": "I am very hungry"
    },
    {
        "class": "RYN8MMQ4",
        "responses": "Because my bus struck in a traffic",
        "sentence": "Why are you late today?"
    },
    {
        "class": "K8BV70L2",
        "responses": "Not sure but definitely will launch in some days",
        "sentence": "When puma has to launch a new showroom"
    },
    {
        "class": "7RPRYB8F",
        "responses": "The workers nearly 5000",
        "sentence": "How many workers are working in puma?"
    },
    {
        "class": "E00YLI8U",
        "responses": "It depends upon a model and size variation",
        "sentence": "Starting price of shoe in puma"
    },
    {
        "class": "GIAGQCK7",
        "responses": "Various dependencies will they have been maintained in a production",
        "sentence": "Puma rules to launch a new product"
    },
    {
        "class": "MNQIZWB7",
        "responses": "Nearly 10 type of new things",
        "sentence": "How many new things puma has been launch in a year?"
    },
    {
        "class": "YTVGZGLK",
        "responses": "Yeah.Definitely!!!!!",
        "sentence": "Puma is customer satisfied product?"
    }
]