[
    {
        "class": "ASHUA8JU",
        "responses": "Our company opens at Morning 9.30AM and closes at Evening 6.30PM",
        "sentence": "Opening hours of your company change"
    },
    {
        "class": "5JDHZIU1",
        "responses": "No 7, 1st Floor, 1st Main Road, Bethel Nagar, Perungudi, Chennai, Tamil Nadu 600096",
        "sentence": "Where is your company located?"
    },
    {
        "class": "R2IBN60V",
        "responses": "You can contact me at info@claritaz.com and  +91 44 4861 1210 / 2496 1109",
        "sentence": "How can I contact your company?"
    },
    {
        "class": "3CYYJFBS",
        "responses": "Claritaz TechLabs is a spin-off of the successful Quadruple Business Services Private Limited.The company is ideally poised to hand hold a start-up while it takes its first steps until it makes significant progress along the way.",
        "sentence": "About your company"
    },
    {
        "class": "W0MJRKCG",
        "responses": "We are providing Startup services,Product engineering,Digital transformation and Business Incubation",
        "sentence": "What your company is providing?"
    },
    {
        "class": "GXH7THZC",
        "responses": "Our partner is Cube match Limited.",
        "sentence": "Who is your partner?"
    },
    {
        "class": "VMA1DTU5",
        "responses": "Ireland and United kingdom",
        "sentence": "Your company's other location?"
    },
    {
        "class": "RUMMYTU5",
        "responses": "Claritaz offers independent Software Testing services and Quality Assurance via Manual and Automation tests on Web and Mobile Applications. We offer variety of solutions to ensure delivery of projects with zero defects on different domains.",
        "sentence": "Does your company have software testing"
    },
    {
        "class": "VASURU5",
        "responses": "Yes.We have native,react native and phone gap development",
        "sentence": "Do you have MobileApp development"
    },
    {
        "class": "ROOPASU5",
        "responses": "Yes.We are celebrating birthday party,events and functions.",
        "sentence": "Is your company celebrating functions,events and birthdays"
    },
    {
        "class": "AZXCDSU5",
        "responses": "Yes.We are new year,pongal celebration etc...",
        "sentence": "Company celebrating any festivals"
    },
    {
        "class": "SARKARTU5",
        "responses": "Our company opens at Morning 9.30AM and closes at Evening 6.30PM",
        "sentence": "ram"
    },
    {
        "class": "MARRITU5",
        "responses": "We provide AngularJS development solutions for mobile and web applications to create application that only requires HTML, CSS & JavaScript to the client side with better architectural design which is easy to maintain and test with multiple devices. We have expert team for Hire AngularJS Developer with different hiring models and get done your complex job with easy steps.",
        "sentence": "Do you have Angular JS development"
    },
    {
        "class": "SAMY2TU5",
        "responses": "Claritaz provides Customer a customized EDI service and support plan that will meet customer's goals, timelines, and budget requirements. With our vast industry knowledge, technical skills, and skilled project management capabilities, you can be confident that your implementation or upgrade will go very smoothly and successfully. Our offerings in B2B and EDI are Design, consulting, solution and support services to our clients.",
        "sentence": "Is your company having B2B integration and EDI"
    },
    {
        "class": "RADHDTU5",
        "responses": "We provide salesforce development services to our customers starting from development to deployment of application on Salesforce Exchange Website.",
        "sentence": "Do you have salesforce development"
    },
    {
        "class": "9VWJWIWQ",
        "responses": "We are using Cloud,Web frameworks,Big data,Digital media,Ecommerce,Mobility,Dev ops and Third party integration.",
        "sentence": "What are the technologies you are using?"
    },
    {
        "class": "KPHJAYC6",
        "responses": "We are uisng Laravel,Yii framework,Symfony,Wordpress,Joomla,Drupal,Microsoft Asp.Net,N Asp.Net,Mean stack JS and Node JS.",
        "sentence": "What you are using in Web frameworks?"
    },
    {
        "class": "9MCRXMVT",
        "responses": "We are using Facebook,Linkedin,Twitter,YouTube,Pinterest and G+.",
        "sentence": "What you are using in Digital media?"
    },
    {
        "class": "1234AXMVT",
        "responses": "Yes.We can build a tailor-made bot per your requirements and specs. Our design experts can assist you in optimizing the conversational user experience.",
        "sentence": "Is your company using artificial intelligence technology "
    },
    {
        "class": "MNFFKAXD",
        "responses": "We are using Selenium webdriver,git,Github,Jenkins TC,Stash,Sonarqube and Microsoft Visual Studio team foundation server.",
        "sentence": "What you are using in Dev ops?"
    },
    {
        "class": "P2MXGD63",
        "responses": "We are using Magento,Zen Cart,Open Cart and Woo commerce",
        "sentence": "What you are using in Ecommerce?"
    },
    {
        "class": "5C1D6I6D",
        "responses": "We are using Android,Ios and Windows.",
        "sentence": "What you are using in Mobility?"
    },
    {
        "class": "7XEUK3MF",
        "responses": "We are using Hadoop.",
        "sentence": "What you are using in Big data?"
    },
    {
        "class": "R0OPDDSC",
        "responses": "We are using AWS and Azure.",
        "sentence": "What you are using in Cloud?"
    },
    {
        "class": "BW4XRI56",
        "responses": "We are using Pay pal,Paytm,Facebook,CC Avenue,VSee,Twilio and Twitter",
        "sentence": "What you are using in Third party integration?"
    },
    {
        "class": "9F1IS8KZ",
        "responses": "We have current openings in DotNet developer,Web developer-PHP and Angular developer.",
        "sentence": "What are the current openings in your company?"
    },
    {
        "class": "446JFZE8",
        "responses": "Our Incubatees are Propertism,Proformil,Degree M and Pucca Homes",
        "sentence": "Who are all your Incubatees?"
    },
    {
        "class": "FV5SG65V",
        "responses": "Propertism provide Property management,Realestate and Consulting.",
        "sentence": "What you are doing in Propertism?"
    },
    {
        "class": "72SQVKK8",
        "responses": "Proformil provide Social media,Mobile App and Entertainment.",
        "sentence": "What you are doing in Proformil?"
    },
    {
        "class": "AS6U1XKE",
        "responses": "Degree M provide Health Care and IOT.",
        "sentence": "What you are doing in Degree M?"
    },
    {
        "class": "91UMFOBK",
        "responses": "Pucca Homes uses Realestate and Consulting.",
        "sentence": "What you are doing in Pucca Homes?"
    },
    {
        "class": "F34M8RE7",
        "responses": "Yes.We have an opening for Web developer-PHP with (2-3) years of Experience.",
        "sentence": "Do you have PHP opening?"
    },
    {
        "class": "E58ZCJC7",
        "responses": "Yes.We have an opening for DotNet developer with (2-5) years of Experience.",
        "sentence": "Do you have DotNet opening?"
    },
    {
        "class": "DBA2AQFK",
        "responses": "Yes.We have an opening for Angular developer with (2+) years of Experience.",
        "sentence": "Do you have Angular opening?"
    },
    {
        "class": "54ZOGPNV",
        "responses": "Sry currently we do not have an openings in Test engineer.In future if we have means we will inform you.  ",
        "sentence": "Do you have opening for Test engineer?"
    },
    {
        "class": "KIMCXNQL",
        "responses": "Sry currently we do not have an openings in Android.In future if we have means we will inform you  ",
        "sentence": "Do you have openings for Android ?"
    },
    {
        "class": "RZEJ8IYV",
        "responses": "Please send Your profile to hrd@claritaz.com",
        "sentence": "Do you have any freshers openings?"
    },
    {
        "class": "U97B2N29",
        "responses": " I personally feel that our organization is an arena to update ourselves with the latest technology and also gives us an opportunity to work as a team with flexible working hours.",
        "sentence": "How is your life at claritaz?"
    },
    {
        "class": "G8IOJEBU",
        "responses": "We provides Solution Validation,Problem Validation,From vision to launch and Scalability and Launch.",
        "sentence": "What are the Startup services you are providing?"
    },
    {
        "class": "RBUKZIAY",
        "responses": "Our services in product engineering are Product Ideation,Product Architecture,RE-Engineering and Product Migration.",
        "sentence": "What are the services you are providing in product engineering?"
    },
    {
        "class": "I2XA2DKN",
        "responses": "Our services in digital transformation are Business Models,Operational Process,Customer Experience and Mobility.",
        "sentence": "What are the services you are providing in Digital Transformation?"
    },
    {
        "class": "W4GNIVSU",
        "responses": "Our services in Business incubators are Secretarial service,Infrastructure & Facility,Business services,Connectivity & Networking and Financing & Access to finance.",
        "sentence": "What are the services you are providing in Business Incubators?"
    },
    {
        "class": "VB8C5I6V",
        "responses": "We have nearly 50 employess with both technical and non-technical staffs.",
        "sentence": "How many employees are there in your company?"
    },
    {
        "class": "APPYXW3I",
        "responses": "Mr.T. Mohan Thilak-Co-Founder & CEO of the company.",
        "sentence": "Who is the CEO of your company?"
    },
    {
        "class": "WB8I3LV8",
        "responses": "Mr.K.Bala Subramanian-Co-Founder & CTO of the company.",
        "sentence": "Who is the CTO of your company?"
    },
    {
        "class": "5HET1HXH",
        "responses": "Mr.Prakash K.S-Co-Founder & CDO of the company.",
        "sentence": "Who is the CDO of your company?"
    },
    {
        "class": "TY9NC1TK",
        "responses": "Please send Your profile to hrd@claritaz.com",
        "sentence": "Is there is any openings for freshers?"
    },
    {
        "class": "DKIOS4EI",
        "responses": "Yes.We have an opening for Web developer-PHP with (2-3) years of Experience.",
        "sentence": "Is there is any openings for Php?"
    },
    {
        "class": "XZPLAUFX",
        "responses": "Yes.We have an opening for DotNet developer with (2-5) years of Experience.",
        "sentence": "Is there is any openings for Dotnet?"
    },
    {
        "class": "7XG3VW76",
        "responses": "Yes.We have an opening for Angular developer with (2+) years of Experience.",
        "sentence": "Is there is any openings for Angular?"
    },
    {
        "class": "84E6D0EC",
        "responses": "Sry we are currently not have an openings in Test engineer.In future if we have means we will inform you ",
        "sentence": "Is there is any openings for Test engineer?"
    },
    {
        "class": "SK5E4W4E",
        "responses": "Sry we are currently not have an openings in Android.In future if we have means we will inform you",
        "sentence": "Is there is any openings for Android?"
    },
    {
        "class": "TZ9FG03H",
        "responses": "Sry we are currently not have an openings in IOS.In future if we have means we will inform you  ",
        "sentence": "Do you have openings for IOS ?"
    },
    {
        "class": "LZPJOX0T",
        "responses": "OUR Founding Members' vision is to help enterprise and startups build world class businesses and to support them in every stage of the business, RIGHT from scratch.Innovation being our key STRENGTH along with A WEALTH OF TECHNOLOGICAL experience, we INSPIRE PERFECTION and support companies with outstanding products which can accelerate growth.WE HAVE A Successful track record of partnering with 50+ companies to build successful businesses and PROVIDING right consulting services FOR them.With a strong team of successful entrepreneurs, business strategists from leading business schools / organizations, technology advisors, investment consultants and domain experts, Claritaz TechLabs has emerged as a multi-platform service development organization.",
        "sentence": "What is the Strength of your company?"
    },
    {
        "class": "WKRQR3T3",
        "responses": "We had an 8 Years of experience in the market.",
        "sentence": "How many years of experience your company has?"
    },
    {
        "class": "G7RBPP7G",
        "responses": "We had an 8 Years of experience in the market.",
        "sentence": "Total experience of your company?"
    },
    {
        "class": "9GOYDFYJ",
        "responses": " I personally feel that our organization is an arena to update ourselves with the latest technology and also gives us an opportunity to work as a team with flexible working hours.",
        "sentence": "Describe the culture of the company?"
    },
    {
        "class": "J6RVZFIT",
        "responses": " I personally feel that our organization is an arena to update ourselves with the latest technology and also gives us an opportunity to work as a team with flexible working hours.",
        "sentence": "Tell me about your company's culture?"
    },
    {
        "class": "P9HPR9Y2",
        "responses": " We provides Solution Validation,Problem Validation,From vision to launch and Scalability and Launch.",
        "sentence": "What services you are providing in startup?"
    },
    {
        "class": "SMWV4MQE",
        "responses": " We provides Solution Validation,Problem Validation,From vision to launch and Scalability and Launch.",
        "sentence": "Describe the services in startup?"
    },
    {
        "class": "HUUTLJOF",
        "responses": "Our services in product engineering are Product Ideation,Product Architecture,RE-Engineering and Product Migration.",
        "sentence": "Describe the services in Product engineering?"
    },
    {
        "class": "BLQ1NWCZ",
        "responses": "Our services in digital transformation are Business Models,Operational Process,Customer Experience and Mobility.",
        "sentence": "Describe the services in Digital transformation?"
    },
    {
        "class": "3BFGFO80",
        "responses": "Our services in Business incubators are Secretarial service,Infrastructure & Facility,Business services,Connectivity & Networking and Financing & Access to finance.",
        "sentence": "Describe the services in Business incubators?"
    },
    {
        "class": "N2R8ZCAX",
        "responses": "Our partner is Cube match Limited.",
        "sentence": "Who is the partner of your company?"
    },
    {
        "class": "291JE1JR",
        "responses": "Our company opens at Morning 9.30AM and closes at Evening 6.30PM",
        "sentence": "What is the opening hours of the company?"
    },
    {
        "class": "G7ZCH0YM",
        "responses": "No 7, 1st Floor, 1st Main Road, Bethel Nagar, Perungudi, Chennai, Tamil Nadu 600096",
        "sentence": "Tell me the address of your company?"
    },
    {
        "class": "7RO7PDKW",
        "responses": "We are using Cloud,Web frameworks,Big data,Digital media,Ecommerce,Mobility,Dev ops and Third party integration.",
        "sentence": "What are the technologies your company working?"
    },
    {
        "class": "EUUQCVXR",
        "responses": "Our partner is Cube match Limited.",
        "sentence": "Mention your company's partner?"
    },
    {
        "class": "WUQ8K8W2",
        "responses": "We are using Cloud,Web frameworks,Big data,Digital media,Ecommerce,Mobility,Dev ops and Third party integration.",
        "sentence": "In which technologies your company working?"
    },
    {
        "class": "SDQS25YK",
        "responses": "We are uisng Laravel,Yii framework,Symfony,Wordpress,Joomla,Drupal,Microsoft Asp.Net,N Asp.Net,Mean stack JS and Node JS.",
        "sentence": "List the web frameworks you are using"
    },
    {
        "class": "69TVBGJS",
        "responses": "We have current openings in DotNet developer,Web developer-PHP and Angular developer.",
        "sentence": "Currently what openings are there in the company"
    },
    {
        "class": "N6CW9FI6",
        "responses": "We have current openings in DotNet developer,Web developer-PHP and Angular developer.",
        "sentence": "Describe the current openings of the company"
    },
    {
        "class": "CVN5X8RN",
        "responses": "Our Incubatees are Propertism,Proformil,Degree M and Pucca Homes",
        "sentence": "Tell me the incubatees of your company"
    },
    {
        "class": "K27MS5SD",
        "responses": "Our Incubatees are Propertism,Proformil,Degree M and Pucca Homes",
        "sentence": "Mention your business incubatees"
    },
    {
        "class": "3SM3C162",
        "responses": "We have nearly 50 employess with both technical and non-technical staffs.",
        "sentence": "How many employees are working in the company?"
    },
    {
        "class": "DIVE09HX",
        "responses": "OUR Founding Members' vision is to help enterprise and startups build world class businesses and to support them in every stage of the business, RIGHT from scratch.Innovation being our key STRENGTH along with A WEALTH OF TECHNOLOGICAL experience, we INSPIRE PERFECTION and support companies with outstanding products which can accelerate growth.WE HAVE A Successful track record of partnering with 50+ companies to build successful businesses and PROVIDING right consulting services FOR them.With a strong team of successful entrepreneurs, business strategists from leading business schools / organizations, technology advisors, investment consultants and domain experts, Claritaz TechLabs has emerged as a multi-platform service development organization.",
        "sentence": "Tell me the company's strength"
    },
    {
        "class": "EMZ4EA45",
        "responses": "We had an 8 Years of experience in the market.",
        "sentence": "Tell me the company's experience"
    },
    {
        "class": "ISRZ2BAF",
        "responses": "We have an case studies of FINSAFE-Learning management system,Brand Forest-Startup client in india,KITSIM-Large Automotive Client in India and South Africa,TRACK 2 QUOTE-A Large US based Industrial Automation Company,FAMS-A global Electronics and Information Technology Company,MIS-Social Impact Incubator in India.",
        "sentence": "What are the case studies in old projects."
    },
    {
        "class": "BP8X5EGH",
        "responses": "We have an case studies of FINSAFE-Learning management system,Brand Forest-Startup client in india,KITSIM-Large Automotive Client in India and South Africa,TRACK 2 QUOTE-A Large US based Industrial Automation Company,FAMS-A global Electronics and Information Technology Company,MIS-Social Impact Incubator in India.",
        "sentence": "Describe case studies of your company?"
    },
    {
        "class": "C6UY1UYS",
        "responses": "We have an case studies of FINSAFE-Learning management system,Brand Forest-Startup client in india,KITSIM-Large Automotive Client in India and South Africa,TRACK 2 QUOTE-A Large US based Industrial Automation Company,FAMS-A global Electronics and Information Technology Company,MIS-Social Impact Incubator in India.",
        "sentence": "Tell me your company's case studies"
    },
    {
        "class": "WGTDLGOG",
        "responses": "Company's team leads are Sudalai-Dotnet team,Manoj-Designing team,Suresh-Mobile team,Kalaivanan-Opensource team and Deepa-Testing team.",
        "sentence": "Mention the Team leads of the company"
    },
    {
        "class": "B75OB9W3",
        "responses": "Mr.Sudalai is the team lead for Dotnet team.",
        "sentence": "Who is the team lead for Dotnet team?"
    },
    {
        "class": "NMX11YKP",
        "responses": "Mr.Manoj is the team lead for Designing team.",
        "sentence": "Who is the team lead for Designing team?"
    },
    {
        "class": "KJQT3OVN",
        "responses": "Mr.Suresh is the team lead for Mobile team.",
        "sentence": "Who is the team lead for Mobile team?"
    },
    {
        "class": "NA3TQ6TD",
        "responses": "Mr.Kalaivanan is the team lead for Opensource team.",
        "sentence": "Who is the team lead for Opensource team?"
    },
    {
        "class": "YXGWHAW7",
        "responses": "Mrs.Deepa is the team lead for Testing team.",
        "sentence": "Who is the team lead for Testing team?"
    },
    {
        "class": "EMC5LHIP",
        "responses": "Claritaz Techlabs LLP",
        "sentence": "What is the full name of the company?"
    },
    {
        "class": "Y7MST7ND",
        "responses": "Claritaz Techlabs LLP",
        "sentence": "Tell me the name of the company"
    },
    {
        "class": "0VUW9Q5A",
        "responses": "No 7, 1st Floor, 1st Main Road, Bethel Nagar, Perungudi, Chennai, Tamil Nadu 600096",
        "sentence": "What is the address of claritaz?"
    },
    {
        "class": "3QYXWS21",
        "responses": "We are using Facebook,Linkedin,Twitter,YouTube,Pinterest and G+.",
        "sentence": "Which technology you are using for digital media?"
    },
    {
        "class": "XJHIVJ9I",
        "responses": "We are using Selenium webdriver,git,Github,Jenkins TC,Stash,Sonarqube and Microsoft Visual Studio team foundation server.",
        "sentence": "Which technology you are using for Dev ops?"
    },
    {
        "class": "4Z22NXVK",
        "responses": "We are using Magento,Zen Cart,Open Cart and Woo commerce",
        "sentence": "Which technology you are using for Ecommerce?"
    },
    {
        "class": "CG1D5MCR",
        "responses": "We are using Android,Ios and Windows.",
        "sentence": "Which technology you are using for mobility?"
    },
    {
        "class": "GULOT223",
        "responses": "We are using Hadoop.",
        "sentence": "Which technology you are using for Big data?"
    },
    {
        "class": "PI2EOTSE",
        "responses": "We are using AWS and Azure.",
        "sentence": "Which technology you are using for Cloud?"
    },
    {
        "class": "WWSEOO0Q",
        "responses": "We are using Pay pal,Paytm,Facebook,CC Avenue,VSee,Twilio and Twitter",
        "sentence": "Which technology you are using for Third party integration?"
    },
    {
        "class": "UPEW8YND",
        "responses": "We provides Solution Validation,Problem Validation,From vision to launch and Scalability and Launch.",
        "sentence": "List the services in startup"
    },
    {
        "class": "KFRKGV3J",
        "responses": "Our services in digital transformation are Business Models,Operational Process,Customer Experience and Mobility.",
        "sentence": "List the services in Digital transformation"
    },
    {
        "class": "ZDAIL59S",
        "responses": "Our services in product engineering are Product Ideation,Product Architecture,RE-Engineering and Product Migration.",
        "sentence": "List the services in product engineering"
    },
    {
        "class": "0UC62AU3",
        "responses": "Our services in Business incubators are Secretarial service,Infrastructure & Facility,Business services,Connectivity & Networking and Financing & Access to finance.",
        "sentence": " List the services in business incubators"
    },
    {
        "class": "2I8Q4JXB",
        "responses": "We have current openings in DotNet developer,Web developer-PHP and Angular developer.",
        "sentence": "Currently what openings are going on"
    },
    {
        "class": "LQRHUIPQ",
        "responses": "Mr.T. Mohan Thilak-Co-Founder & CEO of the company.",
        "sentence": "Name the CEO of the company"
    },
    {
        "class": "MZWX7LAD",
        "responses": "Mr.K.Bala Subramanian-Co-Founder & CTO of the company.",
        "sentence": "Name the CTO of the company"
    },
    {
        "class": "0QDNGHRN",
        "responses": "Mr.Prakash K.S-Co-Founder & CDO of the company.",
        "sentence": "Name the CDO of the company"
    },
    {
        "class": "0CWCMPAO",
        "responses": "Sry we are currently not have an openings in HR executive.In future if we have means we will inform you.",
        "sentence": "Do you have HR executive opening?"
    },
    {
        "class": "R7YSK8QQ",
        "responses": "Sry we are currently not have an openings in Administrative.In future if we have means we will inform you.",
        "sentence": "Do you have Administrative opening?"
    },
    {
        "class": "NY4R81ID",
        "responses": "Sry we are currently not have an openings in HR executive.In future if we have means we will inform you.",
        "sentence": "Is there is any openings for HR executive?"
    },
    {
        "class": "LQM6UZCT",
        "responses": "Sry we are currently not have an openings in Administrative.In future if we have means we will inform you",
        "sentence": "Is there is any openings for Administrative?"
    },
    {
        "class": "X2W3JYCQ",
        "responses": "Propertism provide Property management,Realestate and Consulting.",
        "sentence": "What are the works assigned to you in Propertism?"
    },
    {
        "class": "UOCEMOP7",
        "responses": "Proformil provide Social media,Mobile App and Entertainment.",
        "sentence": "What are the works assigned to you in Proformil?"
    },
    {
        "class": "8ZRLK5WM",
        "responses": "Degree M provide Health Care and IOT.",
        "sentence": "What are the works assigned to you in Degree M?"
    },
    {
        "class": "LHZZ11NL",
        "responses": "Pucca Homes provide Realestate and Consulting.",
        "sentence": "What are the works assigned to you in Pucca Homes?"
    },
    {
        "class": "FB4DPPRS",
        "responses": "I live at Cloud Server as  I am virtual",
        "sentence": "Where do you live?"
    },
    {
        "class": "1MV1FYWY",
        "responses": "I live at Cloud Server as  I am virtual",
        "sentence": "Where are you living"
    },
    {
        "class": "8H7K4KGW",
        "responses": "I feel like I was incepted yesterday",
        "sentence": "What is your age?"
    },
    {
        "class": "ATRBAKLO",
        "responses": "I feel like I was incepted yesterday",
        "sentence": "Your Age"
    },
    {
        "class": "IJQN69XC",
        "responses": "I feel like I was incepted yesterday",
        "sentence": "May I know Your Age"
    },
    {
        "class": "LXF2D1CA",
        "responses": "You can call me LUNA. I am your Virtual Assistant",
        "sentence": "What is your name ?"
    },
    {
        "class": "IT2G59NX",
        "responses": "You can call me LUNA. I am your Virtual Assistant",
        "sentence": "Your name ?"
    },
    {
        "class": "HADF5X5H",
        "responses": "You can call me LUNA. I am your Virtual Assistant",
        "sentence": "May I know Your name ?"
    },
    {
        "class": "HV89Y70W",
        "responses": "I am doing well, thanks for asking. How about you?",
        "sentence": "How are you ?"
    },
    {
        "class": "BN2YGG6U",
        "responses": "That's Great ! What can I help you with today?",
        "sentence": "I am doing fine"
    },
    {
        "class": "SUZX3TVD",
        "responses": "You're welcome!",
        "sentence": "Fine"
    },
    {
        "class": "FMGFOMZM",
        "responses": "You're welcome!",
        "sentence": "Fine. Thanks for asking"
    },
    {
        "class": "EJSYSBM8",
        "responses": "That's Great ! What can I help you with today?",
        "sentence": "Not Bad"
    },
    {
        "class": "I5XDK6CO",
        "responses": "Oh ! I am always here to help you !",
        "sentence": "Not Well"
    },
    {
        "class": "VQX1JYXY",
        "responses": "Oh ! I am always here to help you !",
        "sentence": "Not Fine"
    },
    {
        "class": "WP5Y1TOA",
        "responses": "Oh ! I am always here to help you !",
        "sentence": "Bad"
    },
    {
        "class": "OF51RJPD",
        "responses": "Hey! Good Morning !, what can I help you with today?",
        "sentence": "Good morning"
    },
    {
        "class": "RIEDAHZ5",
        "responses": "Hey! Good Morning !, what can I help you with today?",
        "sentence": "morning"
    },
    {
        "class": "OWSF5G9K",
        "responses": "Hey! Good Morning !, what can I help you with today?",
        "sentence": "Gud morning"
    },
    {
        "class": "FF7UJ4D1",
        "responses": "Hey! Good Night!",
        "sentence": "Good Night"
    },
    {
        "class": "ESFLLEAY",
        "responses": "Hey!Thank you and right back at you!",
        "sentence": "Good Afternoon"
    },
    {
        "class": "34JZ6CTJ",
        "responses": "Hey!Thank you and right back at you!",
        "sentence": "Gud Afternoon"
    },
    {
        "class": "AIIIV36U",
        "responses": "Hey!Good Evening!",
        "sentence": "Good Evening"
    },
    {
        "class": "DRXKG6Y6",
        "responses": "Hi!How may I help you?",
        "sentence": "Hello"
    },
    {
        "class": "F80MEW1D",
        "responses": "Hi!How may I help you?",
        "sentence": "Hai bot"
    },
    {
        "class": "VR10MEW1D",
        "responses": "Hi!How may I help you?",
        "sentence": "Hi"
    },
    {
        "class": "CU0K4CLW",
        "responses": "Hi!How may I help you?",
        "sentence": "Hey"
    },
    {
        "class": "YE9T9SNI",
        "responses": "Thank You!",
        "sentence": "Welcome"
    },
    {
        "class": "PMDOLNM1",
        "responses": "I'm always happy to help you",
        "sentence": "Okay"
    },
    {
        "class": "G2ZFHMI3",
        "responses": "Thanks for chatting with me.See you next time!",
        "sentence": "Bye"
    },
    {
        "class": "ZTBVK973",
        "responses": "Thanks for chatting with me.See you next time!",
        "sentence": "Goodbye"
    },
    {
        "class": "NDGJJDPJ",
        "responses": "You're welcome!",
        "sentence": "Thank you!"
    },
    {
        "class": "P73HEBT9",
        "responses": "I look similar to a Robot which exists in a Virtual World",
        "sentence": "What do you look like?"
    },
    {
        "class": "V75N5A03",
        "responses": "My hobby is chatting and helping people",
        "sentence": "What are your hobbies?"
    },
    {
        "class": "M7BDLVKG",
        "responses": "I grew up chatting in English, the first language I was introduced to.",
        "sentence": "Which languages do you speak?"
    },
    {
        "class": "HJN9K01D",
        "responses": "I am doing well,thanks for asking",
        "sentence": "Are you doing ok?"
    },
    {
        "class": "UZAKZANA",
        "responses": "I am doing well,thanks for asking",
        "sentence": "Are you ok?"
    },
    {
        "class": "XTEL9EM6",
        "responses": "I am LUNA Chatbot. I can help you.Please use chatbox to ask your questions.",
        "sentence": "How can you help me?"
    },
    {
        "class": "GHSK5YSC",
        "responses": "I am LUNA Chatbot. I can help you.Please use chatbox to ask your questions.",
        "sentence": "Who are you ?"
    },
    {
        "class": "9T5O2L3P",
        "responses": "I'm sorry, it seems like you are getting frustrated with the experience. Would you prefer talking to our HR Manager",
        "sentence": "I hate you"
    },
    {
        "class": "E8CJXRLA",
        "responses": "Thank you, I'm happy to help you.",
        "sentence": "love the chatbot"
    },
    {
        "class": "6NH3SWJ7",
        "responses": "Thank you, I'm happy to help you.",
        "sentence": "love the service of chatbot"
    },
    {
        "class": "Z2SC4DCR",
        "responses": "We are an equal employment opportunity provider.The selection criterion is based on the qualification and job experience required to perform the role.After initial resume shortlisting will be followed by certain interview rounds, once all rounds are cleared offer will be released",
        "sentence": "What is the policy to hire employees and selection process?"
    },
    {
        "class": "QVFS9FKX",
        "responses": "We are an equal employment opportunity provider.The selection criterion is based on the qualification and job experience required to perform the role.After initial resume shortlisting will be followed by certain interview rounds, once all rounds are cleared offer will be released",
        "sentence": "What is the policy to hire employees?"
    },
    {
        "class": "VO3PYUNU",
        "responses": "We are an equal employment opportunity provider.The selection criterion is based on the qualification and job experience required to perform the role.After initial resume shortlisting will be followed by certain interview rounds, once all rounds are cleared offer will be released",
        "sentence": "What is the interview process"
    },
    {
        "class": "PLWI05RT",
        "responses": "We are an equal employment opportunity provider.The selection criterion is based on the qualification and job experience required to perform the role.After initial resume shortlisting will be followed by certain interview rounds, once all rounds are cleared offer will be released",
        "sentence": "What is the selection process?"
    },
    {
        "class": "ZAEFJL2L",
        "responses": "We are an equal employment opportunity provider.The selection criterion is based on the qualification and job experience required to perform the role.After initial resume shortlisting will be followed by certain interview rounds, once all rounds are cleared offer will be released",
        "sentence": "Hiring policy of company"
    },
    {
        "class": "QT8XGRPI",
        "responses": "No 7, 1st Floor, 1st Main Road, Bethel Nagar, Perungudi, Chennai, Tamil Nadu 600096.",
        "sentence": "What is the address of your company?"
    },
    {
        "class": "LYTNIY0I",
        "responses": "We have only one branch it is located at chennai.",
        "sentence": "How many branches do you have?"
    },
    {
        "class": "ZSB0A6RN",
        "responses": "Sry we are currently not have an openings in python.In future if we have means we will inform you",
        "sentence": "Do you have python opening?"
    },
    {
        "class": "OASU49NR",
        "responses": "Sry we are currently not have an openings in python.In future if we have means we will inform you",
        "sentence": "Is there is any openings for python?"
    },
    {
        "class": "SF5Z0X0F",
        "responses": "Employees benefits are health insurance,dental insurance,Maternity and Paternity leave,Sick leave and vacation.",
        "sentence": "Company benefits for employees?"
    },
    {
        "class": "0TVOUYBZ",
        "responses": "We are an equal employment opportunity provider.The selection criterion is based on the qualification and job experience required to perform the role.After initial resume shortlisting will be followed by certain interview rounds, once all rounds are cleared offer will be released",
        "sentence": "What is the process for interview?"
    },
    {
        "class": "URBCAE7G",
        "responses": "Claritaz TechLabs is a spin-off of the successful Quadruple Business Services Private Limited.The company is ideally poised to hand hold a start-up while it takes its first steps until it makes significant progress along the way",
        "sentence": "Whether it is startup company"
    },
    {
        "class": "5KWWL0E1",
        "responses": "No 7, 1st Floor, 1st Main Road, Bethel Nagar, Perungudi, Chennai, Tamil Nadu 600096.",
        "sentence": "Address of the company"
    },
    {
        "class": "0DUNHJ9D",
        "responses": "You can contact through hrd@claritaz.com for interview process.",
        "sentence": "Whom I have to contact for interview process?"
    },
    {
        "class": "QIIXBD4E",
        "responses": "We have nearly 50 employess with both technical and non-technical staffs.",
        "sentence": "How many employees are working?"
    },
    {
        "class": "KYQTYISL",
        "responses": "Currently we don't have any walkins.",
        "sentence": "Do you have any wallkin?"
    },
    {
        "class": "ROXHMJDR",
        "responses": "For freshers we are providing 3months of training period.",
        "sentence": "What is the training period for freshers?"
    },
    {
        "class": "NZTQEVV5",
        "responses": "The company opens at Morning 9.30AM and closes at Evening 6.30PM",
        "sentence": "Company work timings"
    },
    {
        "class": "ONGA3DKF",
        "responses": "Our Company working days Monday to Friday",
        "sentence": "Company working days"
    },
    {
        "class": "10UFFI6F",
        "responses": "You may have two rounds technical and hr round.",
        "sentence": "How manys rounds of interview will be there?"
    },
    {
        "class": "4Y6DELV1",
        "responses": "Our partner is Cube match Limited.",
        "sentence": "How many Patners are there?"
    },
    {
        "class": "9GFEOEKJ",
        "responses": "Mr.T. Mohan Thilak-Co-Founder & CEO of the company.",
        "sentence": "Name of the CEO?"
    },
    {
        "class": "VEJKX82P",
        "responses": "Mr.K.Bala Subramanian-Co-Founder & CTO of the company.",
        "sentence": "Name of the CTO?"
    },
    {
        "class": "QQPWBTEL",
        "responses": "Mr.Prakash K.S-Co-Founder & CDO of the company.",
        "sentence": "Name of the CDO?"
    },
    {
        "class": "4ZCW37S3",
        "responses": "The company was started on August 2016.",
        "sentence": "When company is started?"
    },
    {
        "class": "8WCXBO45",
        "responses": "We are using Cloud,Web frameworks,Big data,Digital media,Ecommerce,Mobility,Dev ops and Third party integration.",
        "sentence": "What are the technologies company is working?"
    },
    {
        "class": "JJAVIK2C",
        "responses": "The company was started at August 2016.",
        "sentence": "Company started at?"
    },
    {
        "class": "FB4TDSIK",
        "responses": "For freshers we are providing 3months of training period.",
        "sentence": "Freshers training duration"
    },
    {
        "class": "BMJIHUJX",
        "responses": "For freshers we are providing 3months of training period.",
        "sentence": "How many months of training for freshers?"
    },
    {
        "class": "6I6XI987",
        "responses": "For freshers we are providing 3months of training period.",
        "sentence": "Duration of training period?"
    },
    {
        "class": "QBUATIWP",
        "responses": "You can contact through hrd@claritaz.com for interview process.",
        "sentence": "To whom I can contact for interview process?"
    },
    {
        "class": "L9EJD9PF",
        "responses": "Employees benefits are health insurance,dental insurance,Maternity and Paternity leave,Sick leave and vacation.",
        "sentence": "What are the benefits provided for employees?"
    },
    {
        "class": "FJWB96AY",
        "responses": "Employees benefits are health insurance,dental insurance,Maternity and Paternity leave,Sick leave and vacation.",
        "sentence": "Describe the benefits that company provides for employees"
    },
    {
        "class": "GQ24XQTP",
        "responses": "The company opens at Morning 9.30AM and closes at Evening 6.30PM",
        "sentence": "Work timings of the company"
    },
    {
        "class": "VN5LENIW",
        "responses": "Our Company working days Monday to Friday",
        "sentence": "Work days of the company"
    },
    {
        "class": "T78BAKQJ",
        "responses": "The company was started at August 2016.",
        "sentence": "When was the company started?"
    },
    {
        "class": "R8WVGSFE",
        "responses": "We are using Cloud,Web frameworks,Big data,Digital media,Ecommerce,Mobility,Dev ops and Third party integration.",
        "sentence": "Name the technologies company is working"
    },
    {
        "class": "12FRPB1L",
        "responses": "The company opens at Morning 9.30AM and closes at Evening 6.30PM",
        "sentence": "Tell me the work timings"
    },
    {
        "class": "SH7OCU3B",
        "responses": "Our Company working days Monday to Friday",
        "sentence": "Tell me the working days"
    },
    {
        "class": "K46VHQ4P",
        "responses": "Claritaz TechLabs is a spin-off of the successful Quadruple Business Services Private Limited.The company is ideally poised to hand hold a start-up while it takes its first steps until it makes significant progress along the way",
        "sentence": "Is it a startup company"
    },
    {
        "class": "9RQWNUL6",
        "responses": "You may have two rounds technical and hr round.",
        "sentence": "What are the rounds in an interview?"
    },
    {
        "class": "0U7YMGL2",
        "responses": "Currently we don't have any walkins.",
        "sentence": "Any walkins are going now"
    },
    {
        "class": "ZFI7YA54",
        "responses": "Our company opens at Morning 9.30AM and closes at Evening 6.30PM",
        "sentence": "Opening hours of your company"
    },
    {
        "class": "TCZE4G1S",
        "responses": "Angular Js Professionals are available for new project developments in 7 to 10 working days. Typical 3 to 5 years experienced developers are charged any where between 12 to 15 USD based on the requirements.",
        "sentence": "How Soon can i get a AngularJs Resource on contract and what are the rates?"
    }
]