[
    {
        "class": "59OXGGS3",
        "responses": "Our bussiness hours are 10 a.m to 6 p.m IST",
        "sentence": "how many hours you work a day"
    },
    {
        "class": "DVY5GNEL",
        "responses": "I am a virtual machine trying to assist you",
        "sentence": "are you a man"
    },
    {
        "class": "99HYOZW4",
        "responses": "good bye",
        "sentence": "good bye"
    }
]